%YAML 1.1
%TAG !u! tag:unity3d.com,2011:
--- !u!1 &3597480698256545880
GameObject:
  m_ObjectHideFlags: 0
  m_CorrespondingSourceObject: {fileID: 0}
  m_PrefabInstance: {fileID: 0}
  m_PrefabAsset: {fileID: 0}
  serializedVersion: 6
  m_Component:
  - component: {fileID: 3255332797703382998}
  - component: {fileID: 5728390352791232515}
  - component: {fileID: 4003840541554952625}
  m_Layer: 31
  m_Name: Layer1
  m_TagString: Untagged
  m_Icon: {fileID: 0}
  m_NavMeshLayer: 0
  m_StaticEditorFlags: 0
  m_IsActive: 1
--- !u!4 &3255332797703382998
Transform:
  m_ObjectHideFlags: 0
  m_CorrespondingSourceObject: {fileID: 0}
  m_PrefabInstance: {fileID: 0}
  m_PrefabAsset: {fileID: 0}
  m_GameObject: {fileID: 3597480698256545880}
  m_LocalRotation: {x: -0, y: -0, z: -0, w: 1}
  m_LocalPosition: {x: 0, y: 0, z: 0}
  m_LocalScale: {x: 1, y: 1, z: 1}
  m_Children: []
  m_Father: {fileID: 3635622465907735779}
  m_RootOrder: 0
  m_LocalEulerAnglesHint: {x: 0, y: 0, z: 0}
--- !u!1839735485 &5728390352791232515
Tilemap:
  m_ObjectHideFlags: 0
  m_CorrespondingSourceObject: {fileID: 0}
  m_PrefabInstance: {fileID: 0}
  m_PrefabAsset: {fileID: 0}
  m_GameObject: {fileID: 3597480698256545880}
  m_Enabled: 1
  m_Tiles:
  - first: {x: -2, y: -3, z: 0}
    second:
      m_TileIndex: 15
      m_TileSpriteIndex: 15
      m_TileMatrixIndex: 0
      m_TileColorIndex: 0
      m_ObjectToInstantiate: {fileID: 0}
      m_TileFlags: 1
      m_ColliderType: 1
  - first: {x: -1, y: -3, z: 0}
    second:
      m_TileIndex: 16
      m_TileSpriteIndex: 16
      m_TileMatrixIndex: 0
      m_TileColorIndex: 0
      m_ObjectToInstantiate: {fileID: 0}
      m_TileFlags: 1
      m_ColliderType: 1
  - first: {x: -2, y: -2, z: 0}
    second:
      m_TileIndex: 10
      m_TileSpriteIndex: 10
      m_TileMatrixIndex: 0
      m_TileColorIndex: 0
      m_ObjectToInstantiate: {fileID: 0}
      m_TileFlags: 1
      m_ColliderType: 1
  - first: {x: -1, y: -2, z: 0}
    second:
      m_TileIndex: 11
      m_TileSpriteIndex: 11
      m_TileMatrixIndex: 0
      m_TileColorIndex: 0
      m_ObjectToInstantiate: {fileID: 0}
      m_TileFlags: 1
      m_ColliderType: 1
  - first: {x: 0, y: -2, z: 0}
    second:
      m_TileIndex: 12
      m_TileSpriteIndex: 12
      m_TileMatrixIndex: 0
      m_TileColorIndex: 0
      m_ObjectToInstantiate: {fileID: 0}
      m_TileFlags: 1
      m_ColliderType: 1
  - first: {x: 1, y: -2, z: 0}
    second:
      m_TileIndex: 13
      m_TileSpriteIndex: 13
      m_TileMatrixIndex: 0
      m_TileColorIndex: 0
      m_ObjectToInstantiate: {fileID: 0}
      m_TileFlags: 1
      m_ColliderType: 1
  - first: {x: 2, y: -2, z: 0}
    second:
      m_TileIndex: 14
      m_TileSpriteIndex: 14
      m_TileMatrixIndex: 0
      m_TileColorIndex: 0
      m_ObjectToInstantiate: {fileID: 0}
      m_TileFlags: 1
      m_ColliderType: 1
  - first: {x: -2, y: -1, z: 0}
    second:
      m_TileIndex: 5
      m_TileSpriteIndex: 5
      m_TileMatrixIndex: 0
      m_TileColorIndex: 0
      m_ObjectToInstantiate: {fileID: 0}
      m_TileFlags: 1
      m_ColliderType: 1
  - first: {x: -1, y: -1, z: 0}
    second:
      m_TileIndex: 6
      m_TileSpriteIndex: 6
      m_TileMatrixIndex: 0
      m_TileColorIndex: 0
      m_ObjectToInstantiate: {fileID: 0}
      m_TileFlags: 1
      m_ColliderType: 1
  - first: {x: 0, y: -1, z: 0}
    second:
      m_TileIndex: 7
      m_TileSpriteIndex: 7
      m_TileMatrixIndex: 0
      m_TileColorIndex: 0
      m_ObjectToInstantiate: {fileID: 0}
      m_TileFlags: 1
      m_ColliderType: 1
  - first: {x: 1, y: -1, z: 0}
    second:
      m_TileIndex: 8
      m_TileSpriteIndex: 8
      m_TileMatrixIndex: 0
      m_TileColorIndex: 0
      m_ObjectToInstantiate: {fileID: 0}
      m_TileFlags: 1
      m_ColliderType: 1
  - first: {x: 2, y: -1, z: 0}
    second:
      m_TileIndex: 9
      m_TileSpriteIndex: 9
      m_TileMatrixIndex: 0
      m_TileColorIndex: 0
      m_ObjectToInstantiate: {fileID: 0}
      m_TileFlags: 1
      m_ColliderType: 1
  - first: {x: -2, y: 0, z: 0}
    second:
      m_TileIndex: 0
      m_TileSpriteIndex: 0
      m_TileMatrixIndex: 0
      m_TileColorIndex: 0
      m_ObjectToInstantiate: {fileID: 0}
      m_TileFlags: 1
      m_ColliderType: 1
  - first: {x: -1, y: 0, z: 0}
    second:
      m_TileIndex: 1
      m_TileSpriteIndex: 1
      m_TileMatrixIndex: 0
      m_TileColorIndex: 0
      m_ObjectToInstantiate: {fileID: 0}
      m_TileFlags: 1
      m_ColliderType: 1
  - first: {x: 0, y: 0, z: 0}
    second:
      m_TileIndex: 2
      m_TileSpriteIndex: 2
      m_TileMatrixIndex: 0
      m_TileColorIndex: 0
      m_ObjectToInstantiate: {fileID: 0}
      m_TileFlags: 1
      m_ColliderType: 1
  - first: {x: 1, y: 0, z: 0}
    second:
      m_TileIndex: 3
      m_TileSpriteIndex: 3
      m_TileMatrixIndex: 0
      m_TileColorIndex: 0
      m_ObjectToInstantiate: {fileID: 0}
      m_TileFlags: 1
      m_ColliderType: 1
  - first: {x: 2, y: 0, z: 0}
    second:
      m_TileIndex: 4
      m_TileSpriteIndex: 4
      m_TileMatrixIndex: 0
      m_TileColorIndex: 0
      m_ObjectToInstantiate: {fileID: 0}
      m_TileFlags: 1
      m_ColliderType: 1
  m_AnimatedTiles: {}
  m_TileAssetArray:
  - m_RefCount: 1
    m_Data: {fileID: 11400000, guid: b28532e738abc1f45a6af1f8379ed9a7, type: 2}
  - m_RefCount: 1
    m_Data: {fileID: 11400000, guid: d0bb2abd6ad1ce54a8efb759de97e07e, type: 2}
  - m_RefCount: 1
    m_Data: {fileID: 11400000, guid: 098d290b8f2d2d44e8580c315fbca91e, type: 2}
  - m_RefCount: 1
    m_Data: {fileID: 11400000, guid: 4634c8e37f434f648949aba6109088db, type: 2}
  - m_RefCount: 1
    m_Data: {fileID: 11400000, guid: 51dfd1fdb7e0fa54b9487969a0e1bf04, type: 2}
  - m_RefCount: 1
    m_Data: {fileID: 11400000, guid: 5d03f97342f09394d979910fa48f689c, type: 2}
  - m_RefCount: 1
    m_Data: {fileID: 11400000, guid: 3b547e581051296489b0b8a5fff595e5, type: 2}
  - m_RefCount: 1
    m_Data: {fileID: 11400000, guid: 5f2cb1132c45f30448a90766c107c057, type: 2}
  - m_RefCount: 1
    m_Data: {fileID: 11400000, guid: e4a7cfa2ac00bbc409ef484cac6a6e9a, type: 2}
  - m_RefCount: 1
    m_Data: {fileID: 11400000, guid: 02a914072a2cee544a4e10456ceb6c7f, type: 2}
  - m_RefCount: 1
    m_Data: {fileID: 11400000, guid: 1824313ce36ce8749813c5214f5933a2, type: 2}
  - m_RefCount: 1
    m_Data: {fileID: 11400000, guid: 6ef466f100dafb047b8f02714c648033, type: 2}
  - m_RefCount: 1
    m_Data: {fileID: 11400000, guid: 3981b2a2e315a524f98f96ab24e11356, type: 2}
  - m_RefCount: 1
    m_Data: {fileID: 11400000, guid: 0b8b1c118eb8ed94791220afbbae83ef, type: 2}
  - m_RefCount: 1
    m_Data: {fileID: 11400000, guid: 8f2af9ffba3d0924682cd79f9e4bc659, type: 2}
  - m_RefCount: 1
    m_Data: {fileID: 11400000, guid: 125b04febb69555468a539da7f5f5db8, type: 2}
  - m_RefCount: 1
    m_Data: {fileID: 11400000, guid: 99310eac041d0274ca72e9198ad093ef, type: 2}
  m_TileSpriteArray:
  - m_RefCount: 1
    m_Data: {fileID: 21300000, guid: b08ffaab791fc5f48a56b8d2da9aaee9, type: 3}
  - m_RefCount: 1
    m_Data: {fileID: 21300000, guid: 89c83760af840694591b539c715da7ca, type: 3}
  - m_RefCount: 1
    m_Data: {fileID: 21300000, guid: 46bca2442a6b1ff4cbd0a8056141c039, type: 3}
  - m_RefCount: 1
    m_Data: {fileID: 21300000, guid: 37593ea9ee9b1f34ab98e826485b23df, type: 3}
  - m_RefCount: 1
    m_Data: {fileID: 21300000, guid: 727aa181a1528fc47bfd39e93dd9f504, type: 3}
  - m_RefCount: 1
    m_Data: {fileID: 21300000, guid: 2c847c0310024c34fb90ca04dbc013bf, type: 3}
  - m_RefCount: 1
    m_Data: {fileID: 21300000, guid: ba0e732df3e744245822b77e91bce0c4, type: 3}
  - m_RefCount: 1
    m_Data: {fileID: 21300000, guid: a074faa5b3f8af94490581095ed51925, type: 3}
  - m_RefCount: 1
    m_Data: {fileID: 21300000, guid: 5887bcefc9da12349986afab98cc142f, type: 3}
  - m_RefCount: 1
    m_Data: {fileID: 21300000, guid: d002184d6cad1b343801efb29831adaa, type: 3}
  - m_RefCount: 1
    m_Data: {fileID: 21300000, guid: 8e4481ba336ece04db723ee9caf27053, type: 3}
  - m_RefCount: 1
    m_Data: {fileID: 21300000, guid: 18eb2a2697edff743bbe2dedc6ebd22e, type: 3}
  - m_RefCount: 1
    m_Data: {fileID: 21300000, guid: 39d89ab4761da014ab456e8ceb0646c7, type: 3}
  - m_RefCount: 1
    m_Data: {fileID: 21300000, guid: 6cb105c7130c4b144a6706b70cf11b85, type: 3}
  - m_RefCount: 1
    m_Data: {fileID: 21300000, guid: 4b129445802de9a4ba9694627444e615, type: 3}
  - m_RefCount: 1
    m_Data: {fileID: 21300000, guid: d20e4dfc0f21e594c8624d53ac1a50a1, type: 3}
  - m_RefCount: 1
    m_Data: {fileID: 21300000, guid: c39cc704684a4044ca8bba9ce0696df8, type: 3}
  m_TileMatrixArray:
  - m_RefCount: 17
    m_Data:
      e00: 1
      e01: 0
      e02: 0
      e03: 0
      e10: 0
      e11: 1
      e12: 0
      e13: 0
      e20: 0
      e21: 0
      e22: 1
      e23: 0
      e30: 0
      e31: 0
      e32: 0
      e33: 1
  m_TileColorArray:
  - m_RefCount: 17
    m_Data: {r: 1, g: 1, b: 1, a: 1}
  m_AnimationFrameRate: 1
  m_Color: {r: 1, g: 1, b: 1, a: 1}
  m_Origin: {x: -2, y: -3, z: 0}
  m_Size: {x: 5, y: 4, z: 1}
  m_TileAnchor: {x: 0.5, y: 0.5, z: 0}
  m_TileOrientation: 0
  m_TileOrientationMatrix:
    e00: 1
    e01: 0
    e02: 0
    e03: 0
    e10: 0
    e11: 1
    e12: 0
    e13: 0
    e20: 0
    e21: 0
    e22: 1
    e23: 0
    e30: 0
    e31: 0
    e32: 0
    e33: 1
--- !u!483693784 &4003840541554952625
TilemapRenderer:
  m_ObjectHideFlags: 0
  m_CorrespondingSourceObject: {fileID: 0}
  m_PrefabInstance: {fileID: 0}
  m_PrefabAsset: {fileID: 0}
  m_GameObject: {fileID: 3597480698256545880}
  m_Enabled: 0
  m_CastShadows: 0
  m_ReceiveShadows: 0
  m_DynamicOccludee: 0
  m_MotionVectors: 1
  m_LightProbeUsage: 0
  m_ReflectionProbeUsage: 0
  m_RenderingLayerMask: 1
  m_RendererPriority: 0
  m_Materials:
  - {fileID: 10754, guid: 0000000000000000f000000000000000, type: 0}
  m_StaticBatchInfo:
    firstSubMesh: 0
    subMeshCount: 0
  m_StaticBatchRoot: {fileID: 0}
  m_ProbeAnchor: {fileID: 0}
  m_LightProbeVolumeOverride: {fileID: 0}
  m_ScaleInLightmap: 1
  m_ReceiveGI: 1
  m_PreserveUVs: 0
  m_IgnoreNormalsForChartDetection: 0
  m_ImportantGI: 0
  m_StitchLightmapSeams: 1
  m_SelectedEditorRenderState: 0
  m_MinimumChartSize: 4
  m_AutoUVMaxDistance: 0.5
  m_AutoUVMaxAngle: 89
  m_LightmapParameters: {fileID: 0}
  m_SortingLayerID: 0
  m_SortingLayer: 0
  m_SortingOrder: 0
  m_ChunkSize: {x: 32, y: 32, z: 32}
  m_ChunkCullingBounds: {x: 0, y: 0, z: 0}
  m_MaxChunkCount: 16
  m_MaxFrameAge: 16
  m_SortOrder: 0
  m_Mode: 0
  m_DetectChunkCullingBounds: 0
  m_MaskInteraction: 0
--- !u!1 &6271404654906653114
GameObject:
  m_ObjectHideFlags: 0
  m_CorrespondingSourceObject: {fileID: 0}
  m_PrefabInstance: {fileID: 0}
  m_PrefabAsset: {fileID: 0}
  serializedVersion: 6
  m_Component:
  - component: {fileID: 3635622465907735779}
  - component: {fileID: 4813738215650531437}
  m_Layer: 31
  m_Name: Mina Center
  m_TagString: Untagged
  m_Icon: {fileID: 0}
  m_NavMeshLayer: 0
  m_StaticEditorFlags: 0
  m_IsActive: 1
--- !u!4 &3635622465907735779
Transform:
  m_ObjectHideFlags: 0
  m_CorrespondingSourceObject: {fileID: 0}
  m_PrefabInstance: {fileID: 0}
  m_PrefabAsset: {fileID: 0}
  m_GameObject: {fileID: 6271404654906653114}
  m_LocalRotation: {x: 0, y: 0, z: 0, w: 1}
  m_LocalPosition: {x: 0, y: 0, z: 0}
  m_LocalScale: {x: 1, y: 1, z: 1}
  m_Children:
  - {fileID: 3255332797703382998}
  m_Father: {fileID: 0}
  m_RootOrder: 0
  m_LocalEulerAnglesHint: {x: 0, y: 0, z: 0}
--- !u!156049354 &4813738215650531437
Grid:
  m_ObjectHideFlags: 0
  m_CorrespondingSourceObject: {fileID: 0}
  m_PrefabInstance: {fileID: 0}
  m_PrefabAsset: {fileID: 0}
  m_GameObject: {fileID: 6271404654906653114}
  m_Enabled: 1
  m_CellSize: {x: 1, y: 1, z: 0}
  m_CellGap: {x: 0, y: 0, z: 0}
  m_CellLayout: 0
  m_CellSwizzle: 0
--- !u!114 &-8217366996623650671
MonoBehaviour:
  m_ObjectHideFlags: 0
  m_CorrespondingSourceObject: {fileID: 0}
  m_PrefabInstance: {fileID: 0}
  m_PrefabAsset: {fileID: 0}
  m_GameObject: {fileID: 0}
  m_Enabled: 1
  m_EditorHideFlags: 0
  m_Script: {fileID: 11500000, guid: 9ea68dde30c2924499d4a0a3e9fffcc3, type: 3}
  m_Name: Palette Settings
  m_EditorClassIdentifier: 
  cellSizing: 0
