%YAML 1.1
%TAG !u! tag:unity3d.com,2011:
--- !u!74 &7400000
AnimationClip:
  m_ObjectHideFlags: 0
  m_CorrespondingSourceObject: {fileID: 0}
  m_PrefabInstance: {fileID: 0}
  m_PrefabAsset: {fileID: 0}
  m_Name: Explosion1
  serializedVersion: 6
  m_Legacy: 0
  m_Compressed: 0
  m_UseHighQualityCurve: 1
  m_RotationCurves: []
  m_CompressedRotationCurves: []
  m_EulerCurves: []
  m_PositionCurves: []
  m_ScaleCurves: []
  m_FloatCurves: []
  m_PPtrCurves:
  - curve:
    - time: 0
      value: {fileID: 21300000, guid: 0569aba7b15e53741b6b047f3c1938d0, type: 3}
    - time: 0.083333336
      value: {fileID: 21300000, guid: 8db09f0565147ca41b11019be1c65338, type: 3}
    - time: 0.16666667
      value: {fileID: 21300000, guid: 5a7dc8778d5dc5f4f9bbe857aeeeea08, type: 3}
    - time: 0.25
      value: {fileID: 21300000, guid: 4e7befdb61fe2eb4bbf957e502421339, type: 3}
    - time: 0.33333334
      value: {fileID: 21300000, guid: d08e0525a81979849a820801d16e7244, type: 3}
    - time: 0.41666666
      value: {fileID: 21300000, guid: 696bf1881de231b44a7e1be2d4ed94c2, type: 3}
    - time: 0.5
      value: {fileID: 21300000, guid: f2011571c368e76499b9b084325077f1, type: 3}
    - time: 0.5833333
      value: {fileID: 21300000, guid: c491c6e87d29c104b91e42e12a4dd3b6, type: 3}
    - time: 0.6666667
      value: {fileID: 21300000, guid: 9d0f044bbfc36884e9771b81bc0e727c, type: 3}
    - time: 0.75
      value: {fileID: 21300000, guid: 80d4d283ba1afaf438b7b2311c118007, type: 3}
    - time: 0.8333333
      value: {fileID: 21300000, guid: b23454a8e9da6e74d9985557a012b0ae, type: 3}
    - time: 0.9166667
      value: {fileID: 21300000, guid: 5e13dc7858e34d549812bf0b548ed80d, type: 3}
    - time: 1
      value: {fileID: 21300000, guid: 13322a0673368564c90bd718bb81415c, type: 3}
    attribute: m_Sprite
    path: 
    classID: 212
    script: {fileID: 0}
  m_SampleRate: 12
  m_WrapMode: 0
  m_Bounds:
    m_Center: {x: 0, y: 0, z: 0}
    m_Extent: {x: 0, y: 0, z: 0}
  m_ClipBindingConstant:
    genericBindings:
    - serializedVersion: 2
      path: 0
      attribute: 0
      script: {fileID: 0}
      typeID: 212
      customType: 23
      isPPtrCurve: 1
    pptrCurveMapping:
    - {fileID: 21300000, guid: 0569aba7b15e53741b6b047f3c1938d0, type: 3}
    - {fileID: 21300000, guid: 8db09f0565147ca41b11019be1c65338, type: 3}
    - {fileID: 21300000, guid: 5a7dc8778d5dc5f4f9bbe857aeeeea08, type: 3}
    - {fileID: 21300000, guid: 4e7befdb61fe2eb4bbf957e502421339, type: 3}
    - {fileID: 21300000, guid: d08e0525a81979849a820801d16e7244, type: 3}
    - {fileID: 21300000, guid: 696bf1881de231b44a7e1be2d4ed94c2, type: 3}
    - {fileID: 21300000, guid: f2011571c368e76499b9b084325077f1, type: 3}
    - {fileID: 21300000, guid: c491c6e87d29c104b91e42e12a4dd3b6, type: 3}
    - {fileID: 21300000, guid: 9d0f044bbfc36884e9771b81bc0e727c, type: 3}
    - {fileID: 21300000, guid: 80d4d283ba1afaf438b7b2311c118007, type: 3}
    - {fileID: 21300000, guid: b23454a8e9da6e74d9985557a012b0ae, type: 3}
    - {fileID: 21300000, guid: 5e13dc7858e34d549812bf0b548ed80d, type: 3}
    - {fileID: 21300000, guid: 13322a0673368564c90bd718bb81415c, type: 3}
  m_AnimationClipSettings:
    serializedVersion: 2
    m_AdditiveReferencePoseClip: {fileID: 0}
    m_AdditiveReferencePoseTime: 0
    m_StartTime: 0
    m_StopTime: 1.0833334
    m_OrientationOffsetY: 0
    m_Level: 0
    m_CycleOffset: 0
    m_HasAdditiveReferencePose: 0
    m_LoopTime: 1
    m_LoopBlend: 0
    m_LoopBlendOrientation: 0
    m_LoopBlendPositionY: 0
    m_LoopBlendPositionXZ: 0
    m_KeepOriginalOrientation: 0
    m_KeepOriginalPositionY: 1
    m_KeepOriginalPositionXZ: 0
    m_HeightFromFeet: 0
    m_Mirror: 0
  m_EditorCurves: []
  m_EulerEditorCurves: []
  m_HasGenericRootTransform: 0
  m_HasMotionFloatCurves: 0
  m_Events: []
