%YAML 1.1
%TAG !u! tag:unity3d.com,2011:
--- !u!74 &7400000
AnimationClip:
  m_ObjectHideFlags: 0
  m_CorrespondingSourceObject: {fileID: 0}
  m_PrefabInstance: {fileID: 0}
  m_PrefabAsset: {fileID: 0}
  m_Name: Explosion2
  serializedVersion: 6
  m_Legacy: 0
  m_Compressed: 0
  m_UseHighQualityCurve: 1
  m_RotationCurves: []
  m_CompressedRotationCurves: []
  m_EulerCurves: []
  m_PositionCurves: []
  m_ScaleCurves: []
  m_FloatCurves: []
  m_PPtrCurves:
  - curve:
    - time: 0
      value: {fileID: 21300000, guid: 09f140ac936a7784a800b955225461bc, type: 3}
    - time: 0.083333336
      value: {fileID: 21300000, guid: bc4293ab40dda034fb10196748ddbd9b, type: 3}
    - time: 0.16666667
      value: {fileID: 21300000, guid: a574320db0eea3e4fb94097995c45c82, type: 3}
    - time: 0.25
      value: {fileID: 21300000, guid: 3576759c91c5a544eb119a82d3d76fa7, type: 3}
    - time: 0.33333334
      value: {fileID: 21300000, guid: 7b2b1867f0ce1e94eac1a15ecd9254f6, type: 3}
    - time: 0.41666666
      value: {fileID: 21300000, guid: b131f05d0ce041a449749fc40fc9dddd, type: 3}
    - time: 0.5
      value: {fileID: 21300000, guid: caaf191143ed933408b2f48203b7b70d, type: 3}
    - time: 0.5833333
      value: {fileID: 21300000, guid: 254bdb9ec129b464599c9e948869d09c, type: 3}
    - time: 0.6666667
      value: {fileID: 21300000, guid: 1a5b674fa6016154cb4c5c5927a44d2d, type: 3}
    - time: 0.75
      value: {fileID: 21300000, guid: 91aa39bd728990e4cb573299990b1b27, type: 3}
    - time: 0.8333333
      value: {fileID: 21300000, guid: 99b918934dd71ae4e8a813c0ec66c041, type: 3}
    attribute: m_Sprite
    path: 
    classID: 212
    script: {fileID: 0}
  m_SampleRate: 12
  m_WrapMode: 0
  m_Bounds:
    m_Center: {x: 0, y: 0, z: 0}
    m_Extent: {x: 0, y: 0, z: 0}
  m_ClipBindingConstant:
    genericBindings:
    - serializedVersion: 2
      path: 0
      attribute: 0
      script: {fileID: 0}
      typeID: 212
      customType: 23
      isPPtrCurve: 1
    pptrCurveMapping:
    - {fileID: 21300000, guid: 09f140ac936a7784a800b955225461bc, type: 3}
    - {fileID: 21300000, guid: bc4293ab40dda034fb10196748ddbd9b, type: 3}
    - {fileID: 21300000, guid: a574320db0eea3e4fb94097995c45c82, type: 3}
    - {fileID: 21300000, guid: 3576759c91c5a544eb119a82d3d76fa7, type: 3}
    - {fileID: 21300000, guid: 7b2b1867f0ce1e94eac1a15ecd9254f6, type: 3}
    - {fileID: 21300000, guid: b131f05d0ce041a449749fc40fc9dddd, type: 3}
    - {fileID: 21300000, guid: caaf191143ed933408b2f48203b7b70d, type: 3}
    - {fileID: 21300000, guid: 254bdb9ec129b464599c9e948869d09c, type: 3}
    - {fileID: 21300000, guid: 1a5b674fa6016154cb4c5c5927a44d2d, type: 3}
    - {fileID: 21300000, guid: 91aa39bd728990e4cb573299990b1b27, type: 3}
    - {fileID: 21300000, guid: 99b918934dd71ae4e8a813c0ec66c041, type: 3}
  m_AnimationClipSettings:
    serializedVersion: 2
    m_AdditiveReferencePoseClip: {fileID: 0}
    m_AdditiveReferencePoseTime: 0
    m_StartTime: 0
    m_StopTime: 0.9166666
    m_OrientationOffsetY: 0
    m_Level: 0
    m_CycleOffset: 0
    m_HasAdditiveReferencePose: 0
    m_LoopTime: 1
    m_LoopBlend: 0
    m_LoopBlendOrientation: 0
    m_LoopBlendPositionY: 0
    m_LoopBlendPositionXZ: 0
    m_KeepOriginalOrientation: 0
    m_KeepOriginalPositionY: 1
    m_KeepOriginalPositionXZ: 0
    m_HeightFromFeet: 0
    m_Mirror: 0
  m_EditorCurves: []
  m_EulerEditorCurves: []
  m_HasGenericRootTransform: 0
  m_HasMotionFloatCurves: 0
  m_Events: []
