%YAML 1.1
%TAG !u! tag:unity3d.com,2011:
--- !u!74 &7400000
AnimationClip:
  m_ObjectHideFlags: 0
  m_CorrespondingSourceObject: {fileID: 0}
  m_PrefabInstance: {fileID: 0}
  m_PrefabAsset: {fileID: 0}
  m_Name: Laser 1
  serializedVersion: 6
  m_Legacy: 0
  m_Compressed: 0
  m_UseHighQualityCurve: 1
  m_RotationCurves: []
  m_CompressedRotationCurves: []
  m_EulerCurves: []
  m_PositionCurves: []
  m_ScaleCurves: []
  m_FloatCurves:
  - curve:
      serializedVersion: 2
      m_Curve:
      - serializedVersion: 3
        time: 0
        value: 0
        inSlope: Infinity
        outSlope: Infinity
        tangentMode: 103
        weightedMode: 0
        inWeight: 0.33333334
        outWeight: 0.33333334
      - serializedVersion: 3
        time: 0.8333333
        value: 1
        inSlope: Infinity
        outSlope: Infinity
        tangentMode: 103
        weightedMode: 0
        inWeight: 0.33333334
        outWeight: 0.33333334
      m_PreInfinity: 2
      m_PostInfinity: 2
      m_RotationOrder: 4
    attribute: m_Enabled
    path: 
    classID: 61
    script: {fileID: 0}
  - curve:
      serializedVersion: 2
      m_Curve:
      - serializedVersion: 3
        time: 0
        value: -0.055
        inSlope: 0
        outSlope: 0
        tangentMode: 136
        weightedMode: 0
        inWeight: 0.33333334
        outWeight: 0.33333334
      - serializedVersion: 3
        time: 0.8333333
        value: -0.09803704
        inSlope: -0.187798
        outSlope: -0.187798
        tangentMode: 136
        weightedMode: 0
        inWeight: 0.33333334
        outWeight: 0.33333334
      - serializedVersion: 3
        time: 0.9166667
        value: -0.2583596
        inSlope: -2.1666892
        outSlope: -2.1666892
        tangentMode: 136
        weightedMode: 0
        inWeight: 0.33333334
        outWeight: 0.33333334
      - serializedVersion: 3
        time: 1
        value: -0.45915192
        inSlope: -3.3903325
        outSlope: -3.3903325
        tangentMode: 136
        weightedMode: 0
        inWeight: 0.33333334
        outWeight: 0.33333334
      - serializedVersion: 3
        time: 1.0833334
        value: -0.8234151
        inSlope: -3.0414045
        outSlope: -3.0414045
        tangentMode: 136
        weightedMode: 0
        inWeight: 0.33333334
        outWeight: 0.33333334
      - serializedVersion: 3
        time: 1.1666666
        value: -0.96605253
        inSlope: -0.44458878
        outSlope: -0.44458878
        tangentMode: 136
        weightedMode: 0
        inWeight: 0.33333334
        outWeight: 0.33333334
      - serializedVersion: 3
        time: 1.25
        value: -0.98457706
        inSlope: 0
        outSlope: 0
        tangentMode: 136
        weightedMode: 0
        inWeight: 0.33333334
        outWeight: 0.33333334
      - serializedVersion: 3
        time: 1.3333334
        value: -0.975315
        inSlope: 0
        outSlope: 0
        tangentMode: 136
        weightedMode: 0
        inWeight: 0.33333334
        outWeight: 0.33333334
      m_PreInfinity: 2
      m_PostInfinity: 2
      m_RotationOrder: 4
    attribute: m_Offset.x
    path: 
    classID: 61
    script: {fileID: 0}
  - curve:
      serializedVersion: 2
      m_Curve:
      - serializedVersion: 3
        time: 0
        value: 0.11
        inSlope: 0
        outSlope: 0
        tangentMode: 136
        weightedMode: 0
        inWeight: 0.33333334
        outWeight: 0.33333334
      - serializedVersion: 3
        time: 0.8333333
        value: 0.19607408
        inSlope: 0.375596
        outSlope: 0.375596
        tangentMode: 136
        weightedMode: 0
        inWeight: 0.33333334
        outWeight: 0.33333334
      - serializedVersion: 3
        time: 0.9166667
        value: 0.5167192
        inSlope: 4.3333783
        outSlope: 4.3333783
        tangentMode: 136
        weightedMode: 0
        inWeight: 0.33333334
        outWeight: 0.33333334
      - serializedVersion: 3
        time: 1
        value: 0.91830385
        inSlope: 6.780665
        outSlope: 6.780665
        tangentMode: 136
        weightedMode: 0
        inWeight: 0.33333334
        outWeight: 0.33333334
      - serializedVersion: 3
        time: 1.0833334
        value: 1.6468302
        inSlope: 6.082809
        outSlope: 6.082809
        tangentMode: 136
        weightedMode: 0
        inWeight: 0.33333334
        outWeight: 0.33333334
      - serializedVersion: 3
        time: 1.1666666
        value: 1.9321051
        inSlope: 0.88917756
        outSlope: 0.88917756
        tangentMode: 136
        weightedMode: 0
        inWeight: 0.33333334
        outWeight: 0.33333334
      - serializedVersion: 3
        time: 1.25
        value: 1.9691541
        inSlope: 0
        outSlope: 0
        tangentMode: 136
        weightedMode: 0
        inWeight: 0.33333334
        outWeight: 0.33333334
      - serializedVersion: 3
        time: 1.3333334
        value: 1.95063
        inSlope: 0
        outSlope: 0
        tangentMode: 136
        weightedMode: 0
        inWeight: 0.33333334
        outWeight: 0.33333334
      m_PreInfinity: 2
      m_PostInfinity: 2
      m_RotationOrder: 4
    attribute: m_Size.x
    path: 
    classID: 61
    script: {fileID: 0}
  m_PPtrCurves:
  - curve:
    - time: 0
      value: {fileID: 21300000, guid: 438e451516740d945bd2eb407ed1b11f, type: 3}
    - time: 0.083333336
      value: {fileID: 21300002, guid: 438e451516740d945bd2eb407ed1b11f, type: 3}
    - time: 0.16666667
      value: {fileID: 21300000, guid: 438e451516740d945bd2eb407ed1b11f, type: 3}
    - time: 0.25
      value: {fileID: 21300002, guid: 438e451516740d945bd2eb407ed1b11f, type: 3}
    - time: 0.33333334
      value: {fileID: 21300000, guid: 438e451516740d945bd2eb407ed1b11f, type: 3}
    - time: 0.41666666
      value: {fileID: 21300002, guid: 438e451516740d945bd2eb407ed1b11f, type: 3}
    - time: 0.5
      value: {fileID: 21300000, guid: 438e451516740d945bd2eb407ed1b11f, type: 3}
    - time: 0.5833333
      value: {fileID: 21300002, guid: 438e451516740d945bd2eb407ed1b11f, type: 3}
    - time: 0.6666667
      value: {fileID: 21300000, guid: 438e451516740d945bd2eb407ed1b11f, type: 3}
    - time: 0.75
      value: {fileID: 21300002, guid: 438e451516740d945bd2eb407ed1b11f, type: 3}
    - time: 0.8333333
      value: {fileID: 21300004, guid: 438e451516740d945bd2eb407ed1b11f, type: 3}
    - time: 0.9166667
      value: {fileID: 21300006, guid: 438e451516740d945bd2eb407ed1b11f, type: 3}
    - time: 1
      value: {fileID: 21300008, guid: 438e451516740d945bd2eb407ed1b11f, type: 3}
    - time: 1.0833334
      value: {fileID: 21300010, guid: 438e451516740d945bd2eb407ed1b11f, type: 3}
    - time: 1.1666666
      value: {fileID: 21300012, guid: 438e451516740d945bd2eb407ed1b11f, type: 3}
    - time: 1.25
      value: {fileID: 21300014, guid: 438e451516740d945bd2eb407ed1b11f, type: 3}
    - time: 1.3333334
      value: {fileID: 21300016, guid: 438e451516740d945bd2eb407ed1b11f, type: 3}
    attribute: m_Sprite
    path: 
    classID: 212
    script: {fileID: 0}
  m_SampleRate: 12
  m_WrapMode: 0
  m_Bounds:
    m_Center: {x: 0, y: 0, z: 0}
    m_Extent: {x: 0, y: 0, z: 0}
  m_ClipBindingConstant:
    genericBindings:
    - serializedVersion: 2
      path: 0
      attribute: 3305885265
      script: {fileID: 0}
      typeID: 61
      customType: 0
      isPPtrCurve: 0
    - serializedVersion: 2
      path: 0
      attribute: 413499720
      script: {fileID: 0}
      typeID: 61
      customType: 0
      isPPtrCurve: 0
    - serializedVersion: 2
      path: 0
      attribute: 4197328169
      script: {fileID: 0}
      typeID: 61
      customType: 0
      isPPtrCurve: 0
    - serializedVersion: 2
      path: 0
      attribute: 0
      script: {fileID: 0}
      typeID: 212
      customType: 23
      isPPtrCurve: 1
    pptrCurveMapping:
    - {fileID: 21300000, guid: 438e451516740d945bd2eb407ed1b11f, type: 3}
    - {fileID: 21300002, guid: 438e451516740d945bd2eb407ed1b11f, type: 3}
    - {fileID: 21300000, guid: 438e451516740d945bd2eb407ed1b11f, type: 3}
    - {fileID: 21300002, guid: 438e451516740d945bd2eb407ed1b11f, type: 3}
    - {fileID: 21300000, guid: 438e451516740d945bd2eb407ed1b11f, type: 3}
    - {fileID: 21300002, guid: 438e451516740d945bd2eb407ed1b11f, type: 3}
    - {fileID: 21300000, guid: 438e451516740d945bd2eb407ed1b11f, type: 3}
    - {fileID: 21300002, guid: 438e451516740d945bd2eb407ed1b11f, type: 3}
    - {fileID: 21300000, guid: 438e451516740d945bd2eb407ed1b11f, type: 3}
    - {fileID: 21300002, guid: 438e451516740d945bd2eb407ed1b11f, type: 3}
    - {fileID: 21300004, guid: 438e451516740d945bd2eb407ed1b11f, type: 3}
    - {fileID: 21300006, guid: 438e451516740d945bd2eb407ed1b11f, type: 3}
    - {fileID: 21300008, guid: 438e451516740d945bd2eb407ed1b11f, type: 3}
    - {fileID: 21300010, guid: 438e451516740d945bd2eb407ed1b11f, type: 3}
    - {fileID: 21300012, guid: 438e451516740d945bd2eb407ed1b11f, type: 3}
    - {fileID: 21300014, guid: 438e451516740d945bd2eb407ed1b11f, type: 3}
    - {fileID: 21300016, guid: 438e451516740d945bd2eb407ed1b11f, type: 3}
  m_AnimationClipSettings:
    serializedVersion: 2
    m_AdditiveReferencePoseClip: {fileID: 0}
    m_AdditiveReferencePoseTime: 0
    m_StartTime: 0
    m_StopTime: 1.4166667
    m_OrientationOffsetY: 0
    m_Level: 0
    m_CycleOffset: 0
    m_HasAdditiveReferencePose: 0
    m_LoopTime: 0
    m_LoopBlend: 0
    m_LoopBlendOrientation: 0
    m_LoopBlendPositionY: 0
    m_LoopBlendPositionXZ: 0
    m_KeepOriginalOrientation: 0
    m_KeepOriginalPositionY: 1
    m_KeepOriginalPositionXZ: 0
    m_HeightFromFeet: 0
    m_Mirror: 0
  m_EditorCurves:
  - curve:
      serializedVersion: 2
      m_Curve:
      - serializedVersion: 3
        time: 0
        value: 0
        inSlope: Infinity
        outSlope: Infinity
        tangentMode: 103
        weightedMode: 0
        inWeight: 0.33333334
        outWeight: 0.33333334
      - serializedVersion: 3
        time: 0.8333333
        value: 1
        inSlope: Infinity
        outSlope: Infinity
        tangentMode: 103
        weightedMode: 0
        inWeight: 0.33333334
        outWeight: 0.33333334
      m_PreInfinity: 2
      m_PostInfinity: 2
      m_RotationOrder: 4
    attribute: m_Enabled
    path: 
    classID: 61
    script: {fileID: 0}
  - curve:
      serializedVersion: 2
      m_Curve:
      - serializedVersion: 3
        time: 0
        value: -0.055
        inSlope: 0
        outSlope: 0
        tangentMode: 136
        weightedMode: 0
        inWeight: 0.33333334
        outWeight: 0.33333334
      - serializedVersion: 3
        time: 0.8333333
        value: -0.09803704
        inSlope: -0.187798
        outSlope: -0.187798
        tangentMode: 136
        weightedMode: 0
        inWeight: 0.33333334
        outWeight: 0.33333334
      - serializedVersion: 3
        time: 0.9166667
        value: -0.2583596
        inSlope: -2.1666892
        outSlope: -2.1666892
        tangentMode: 136
        weightedMode: 0
        inWeight: 0.33333334
        outWeight: 0.33333334
      - serializedVersion: 3
        time: 1
        value: -0.45915192
        inSlope: -3.3903325
        outSlope: -3.3903325
        tangentMode: 136
        weightedMode: 0
        inWeight: 0.33333334
        outWeight: 0.33333334
      - serializedVersion: 3
        time: 1.0833334
        value: -0.8234151
        inSlope: -3.0414045
        outSlope: -3.0414045
        tangentMode: 136
        weightedMode: 0
        inWeight: 0.33333334
        outWeight: 0.33333334
      - serializedVersion: 3
        time: 1.1666666
        value: -0.96605253
        inSlope: -0.44458878
        outSlope: -0.44458878
        tangentMode: 136
        weightedMode: 0
        inWeight: 0.33333334
        outWeight: 0.33333334
      - serializedVersion: 3
        time: 1.25
        value: -0.98457706
        inSlope: 0
        outSlope: 0
        tangentMode: 136
        weightedMode: 0
        inWeight: 0.33333334
        outWeight: 0.33333334
      - serializedVersion: 3
        time: 1.3333334
        value: -0.975315
        inSlope: 0
        outSlope: 0
        tangentMode: 136
        weightedMode: 0
        inWeight: 0.33333334
        outWeight: 0.33333334
      m_PreInfinity: 2
      m_PostInfinity: 2
      m_RotationOrder: 4
    attribute: m_Offset.x
    path: 
    classID: 61
    script: {fileID: 0}
  - curve:
      serializedVersion: 2
      m_Curve:
      - serializedVersion: 3
        time: 0
        value: 0.11
        inSlope: 0
        outSlope: 0
        tangentMode: 136
        weightedMode: 0
        inWeight: 0.33333334
        outWeight: 0.33333334
      - serializedVersion: 3
        time: 0.8333333
        value: 0.19607408
        inSlope: 0.375596
        outSlope: 0.375596
        tangentMode: 136
        weightedMode: 0
        inWeight: 0.33333334
        outWeight: 0.33333334
      - serializedVersion: 3
        time: 0.9166667
        value: 0.5167192
        inSlope: 4.3333783
        outSlope: 4.3333783
        tangentMode: 136
        weightedMode: 0
        inWeight: 0.33333334
        outWeight: 0.33333334
      - serializedVersion: 3
        time: 1
        value: 0.91830385
        inSlope: 6.780665
        outSlope: 6.780665
        tangentMode: 136
        weightedMode: 0
        inWeight: 0.33333334
        outWeight: 0.33333334
      - serializedVersion: 3
        time: 1.0833334
        value: 1.6468302
        inSlope: 6.082809
        outSlope: 6.082809
        tangentMode: 136
        weightedMode: 0
        inWeight: 0.33333334
        outWeight: 0.33333334
      - serializedVersion: 3
        time: 1.1666666
        value: 1.9321051
        inSlope: 0.88917756
        outSlope: 0.88917756
        tangentMode: 136
        weightedMode: 0
        inWeight: 0.33333334
        outWeight: 0.33333334
      - serializedVersion: 3
        time: 1.25
        value: 1.9691541
        inSlope: 0
        outSlope: 0
        tangentMode: 136
        weightedMode: 0
        inWeight: 0.33333334
        outWeight: 0.33333334
      - serializedVersion: 3
        time: 1.3333334
        value: 1.95063
        inSlope: 0
        outSlope: 0
        tangentMode: 136
        weightedMode: 0
        inWeight: 0.33333334
        outWeight: 0.33333334
      m_PreInfinity: 2
      m_PostInfinity: 2
      m_RotationOrder: 4
    attribute: m_Size.x
    path: 
    classID: 61
    script: {fileID: 0}
  m_EulerEditorCurves: []
  m_HasGenericRootTransform: 0
  m_HasMotionFloatCurves: 0
  m_Events: []
