%YAML 1.1
%TAG !u! tag:unity3d.com,2011:
--- !u!74 &7400000
AnimationClip:
  m_ObjectHideFlags: 0
  m_CorrespondingSourceObject: {fileID: 0}
  m_PrefabInstance: {fileID: 0}
  m_PrefabAsset: {fileID: 0}
  m_Name: Jump
  serializedVersion: 6
  m_Legacy: 0
  m_Compressed: 0
  m_UseHighQualityCurve: 1
  m_RotationCurves: []
  m_CompressedRotationCurves: []
  m_EulerCurves: []
  m_PositionCurves: []
  m_ScaleCurves: []
  m_FloatCurves: []
  m_PPtrCurves:
  - curve:
    - time: 0
      value: {fileID: 21300000, guid: 026284d3079d2f34da606c4d2a15ec8e, type: 3}
    - time: 0.083333336
      value: {fileID: 21300000, guid: 16f6cbc73b169d14e8f096df2a4a4f81, type: 3}
    - time: 0.16666667
      value: {fileID: 21300000, guid: 80f2395d1fe98b6438ed57d7575abb6e, type: 3}
    - time: 0.25
      value: {fileID: 21300000, guid: b20e7e7d08f891a408ff75605bb87d3a, type: 3}
    - time: 0.33333334
      value: {fileID: 21300000, guid: cf9a928069ec01041a5512a4f4015653, type: 3}
    attribute: m_Sprite
    path: 
    classID: 212
    script: {fileID: 0}
  m_SampleRate: 12
  m_WrapMode: 0
  m_Bounds:
    m_Center: {x: 0, y: 0, z: 0}
    m_Extent: {x: 0, y: 0, z: 0}
  m_ClipBindingConstant:
    genericBindings:
    - serializedVersion: 2
      path: 0
      attribute: 0
      script: {fileID: 0}
      typeID: 212
      customType: 23
      isPPtrCurve: 1
    pptrCurveMapping:
    - {fileID: 21300000, guid: 026284d3079d2f34da606c4d2a15ec8e, type: 3}
    - {fileID: 21300000, guid: 16f6cbc73b169d14e8f096df2a4a4f81, type: 3}
    - {fileID: 21300000, guid: 80f2395d1fe98b6438ed57d7575abb6e, type: 3}
    - {fileID: 21300000, guid: b20e7e7d08f891a408ff75605bb87d3a, type: 3}
    - {fileID: 21300000, guid: cf9a928069ec01041a5512a4f4015653, type: 3}
  m_AnimationClipSettings:
    serializedVersion: 2
    m_AdditiveReferencePoseClip: {fileID: 0}
    m_AdditiveReferencePoseTime: 0
    m_StartTime: 0
    m_StopTime: 0.4166667
    m_OrientationOffsetY: 0
    m_Level: 0
    m_CycleOffset: 0
    m_HasAdditiveReferencePose: 0
    m_LoopTime: 1
    m_LoopBlend: 0
    m_LoopBlendOrientation: 0
    m_LoopBlendPositionY: 0
    m_LoopBlendPositionXZ: 0
    m_KeepOriginalOrientation: 0
    m_KeepOriginalPositionY: 1
    m_KeepOriginalPositionXZ: 0
    m_HeightFromFeet: 0
    m_Mirror: 0
  m_EditorCurves: []
  m_EulerEditorCurves: []
  m_HasGenericRootTransform: 0
  m_HasMotionFloatCurves: 0
  m_Events: []
